Preprocess
…
# Aggregate the data to count missing values for each 'Series name' and 'Year'
missing_values_count_series <- data_long %>%
                        group_by(Series_name, Year) %>%
                        summarise(MissingCount = sum(IsMissing)) %>%
                        ungroup()

`summarise()` has grouped output by 'Series_name'. You can override using the
`.groups` argument.

rows_with_more_than_117_missing <- which(missing_values_count_series$MissingCount > 117)
rows_with_more_than_117_missing <- missing_values_count_series[rows_with_more_than_117_missing, ]
rows_with_more_than_117_missing

# A tibble: 905 × 3
   Series_name                                   Year  MissingCount
   <chr>                                         <chr>        <int>
 1 Access to electricity (% of total population) 1990           233
 2 Access to electricity (% of total population) 1991           233
 3 Access to electricity (% of total population) 1992           233
 4 Access to electricity (% of total population) 1993           233
 5 Access to electricity (% of total population) 1994           233
 6 Access to electricity (% of total population) 1995           233
 7 Access to electricity (% of total population) 1996           233
 8 Access to electricity (% of total population) 1997           233
 9 Access to electricity (% of total population) 1998           233
10 Access to electricity (% of total population) 1999           233
# ℹ 895 more rows

# Group by "Series name" and sum the MissingCount
result <- rows_with_more_than_117_missing %>%
  group_by(Series_name) %>%
  summarise("Total Missing Count" = sum(MissingCount))

# Print the aggregated result
print(result)

# A tibble: 58 × 2
   Series_name                                             `Total Missing Count`
   <chr>                                                                   <int>
 1 Access to electricity (% of total population)                            5027
 2 Access to improved sanitation (% of total pop.)                          3936
 3 Access to improved water source (% of total pop.)                        3935
 4 Agricultural land under irrigation (% of total ag. lan…                  4684
 5 Annex-I emissions reduction target                                       5592
 6 Annual freshwater withdrawals (% of internal resources)                  4845
 7 Average annual precipitation (1961-1990, mm)                             5359
 8 Average daily min/max temperature (1961-1990, Celsius)                   5592
 9 CO2 emissions per capita (metric tons)                                    699
10 CO2 emissions per units of GDP (kg/$1,000 of 2005 PPP …                   699
# ℹ 48 more rows
…
